ShootThemUp/Binaries/Win64/D3D12/D3D12Core.dll	2022-07-13T06:34:59.387Z
ShootThemUp/Binaries/Win64/D3D12/d3d12SDKLayers.dll	2022-07-13T06:35:04.424Z
ShootThemUp/Binaries/Win64/OpenImageDenoise.dll	2022-04-06T21:13:11.229Z
ShootThemUp/Binaries/Win64/ShootThemUp.exe	2022-07-31T20:56:32.741Z
ShootThemUp/Binaries/Win64/tbb.dll	2022-04-06T20:50:38.182Z
ShootThemUp/Binaries/Win64/tbb12.dll	2022-04-06T21:13:08.182Z
Engine/Extras/Redist/en-us/UEPrereqSetup_x64.exe	2022-04-06T20:55:45.598Z
Engine/Binaries/ThirdParty/DbgHelp/dbghelp.dll	2022-04-06T20:50:06.851Z
Engine/Binaries/ThirdParty/NVIDIA/GeForceNOW/Win64/GfnRuntimeSdk.dll	2022-04-06T20:50:43.338Z
Engine/Binaries/ThirdParty/NVIDIA/NVaftermath/Win64/GFSDK_Aftermath_Lib.x64.dll	2022-04-06T20:50:43.698Z
Engine/Binaries/ThirdParty/Ogg/Win64/VS2015/libogg_64.dll	2022-04-06T20:50:44.263Z
Engine/Binaries/ThirdParty/PhysX3/Win64/VS2015/PhysX3CommonPROFILE_x64.dll	2022-04-06T20:50:51.972Z
Engine/Binaries/ThirdParty/PhysX3/Win64/VS2015/PhysX3CookingPROFILE_x64.dll	2022-04-06T20:50:52.434Z
Engine/Binaries/ThirdParty/PhysX3/Win64/VS2015/PhysX3PROFILE_x64.dll	2022-04-06T20:50:52.614Z
Engine/Binaries/ThirdParty/PhysX3/Win64/VS2015/PxFoundationPROFILE_x64.dll	2022-04-06T20:50:53.182Z
Engine/Binaries/ThirdParty/PhysX3/Win64/VS2015/PxPvdSDKPROFILE_x64.dll	2022-04-06T20:50:53.195Z
Engine/Binaries/ThirdParty/Vorbis/Win64/VS2015/libvorbis_64.dll	2022-04-06T20:50:59.640Z
Engine/Binaries/ThirdParty/Vorbis/Win64/VS2015/libvorbisfile_64.dll	2022-04-06T20:50:59.640Z
Engine/Binaries/ThirdParty/Windows/WinPixEventRuntime/x64/WinPixEventRuntime.dll	2022-04-06T20:51:00.276Z
Engine/Binaries/ThirdParty/Windows/XAudio2_9/x64/xaudio2_9redist.dll	2022-04-06T20:51:01.098Z
ShootThemUp.exe	2022-07-31T20:56:43.435Z
